 n:  1000000000
 I am 0 and received 2.7182818284590455 from 1
 I am 0 and received 0. from 2
 I am 0 and received 0. from 3
 I am 0 and received 0. from 4
 I am 0 and received 0. from 5
 I am 0 and received 0. from 6
 I am 0 and received 0. from 7
 I am 0 and received 0. from 8
 I am 0 and received 0. from 9
 I am 0 and received 0. from 10
 I am 0 and received 0. from 11
 I am 0 and have 2.7182818284590455
 I am 8 and go 636363636 to 727272727
 I am 8 and have 0.
 I am 9 and go 727272727 to 818181818
 I am 9 and have 0.
 I am 1 and go 0 to 90909090
 I am 1 and have 2.7182818284590455
 I am 2 and go 90909090 to 181818181
 I am 2 and have 0.
 I am 3 and go 181818181 to 272727272
 I am 3 and have 0.
 I am 4 and go 272727272 to 363636363
 I am 4 and have 0.
 I am 5 and go 363636363 to 454545454
 I am 5 and have 0.
 I am 6 and go 454545454 to 545454545
 I am 6 and have 0.
 I am 7 and go 545454545 to 636363636
 I am 7 and have 0.
 I am 10 and go 818181818 to 909090909
 I am 10 and have 0.
 I am 11 and go 909090909 to 1000000000
 I am 11 and have 0.
 
Batch Job Summary Report for Job "name" (21300648) on daint
-----------------------------------------------------------------------------------------------------
             Submit            Eligible               Start                 End    Elapsed  Timelimit 
------------------- ------------------- ------------------- ------------------- ---------- ---------- 
2020-03-21T10:41:46 2020-03-21T10:41:46 2020-03-21T10:41:47 2020-03-21T10:41:56   00:00:09   00:01:00 
-----------------------------------------------------------------------------------------------------
Username    Account     Partition   NNodes   Energy
----------  ----------  ----------  ------  --------------
course95    uzg2        debug            1        0 joules
 
This job did not utilize any GPUs
 
----------------------------------------------------------
Scratch File System        Files       Quota
--------------------  ----------  ----------
/scratch/snx3000              84     1000000
 
